Introduction to tidycensuskr • tidycensuskr
…
Sample surveys (표본조사):

For example, the Economically Active Population Survey, which
conducts monthly household interviews for those aged 15 or older.

In this package, the dataset records information from the
three most recent Population Censuses: 2010,
2015, and 2020.

censuskor |> 
  filter(type == "population")

Example output:

# A tibble: 2,361 × 9
    year adm1  adm2         adm2_code type       class1         class2 unit     value
   <dbl> <chr> <chr>            <dbl> <chr>      <chr>          <chr>  <chr>    <dbl>
 1  2010 Seoul Jongno-gu        11010 population all households total  persons 147843
 2  2010 Seoul Jongno-gu        11010 population all households male   persons  71313
 3  2010 Seoul Jongno-gu        11010 population all households female persons  76530
 4  2010 Seoul Jung-gu          11020 population all households total  persons 115387
 5  2010 Seoul Jung-gu          11020 population all households male   persons  56104
 6  2010 Seoul Jung-gu          11020 population all households female persons  59283
 7  2010 Seoul Yongsan-gu       11030 population all households total  persons 218308
 8  2010 Seoul Yongsan-gu       11030 population all households male   persons 103711
 9  2010 Seoul Yongsan-gu       11030 population all households female persons 114597
10  2010 Seoul Seongdong-gu     11040 population all households total  persons 287460
# ℹ 2,351 more rows
# ℹ Use `print(n = ...)` to see more rows
…
